[
  {
    "id": 1,
    "title": "Javascript - The good part",
    "author": "Douglas Crockford",
    "pages": "172"
  },
  {
    "id": 2,
    "title": "Node.js Design Patterns",
    "author": "Mario Casciaro",
    "pages": "526"
  },
  {
    "id": 3,
    "title": "Node.JS Web Development",
    "author": "David Herron",
    "pages": "376"
  },
  {
    "id": 4,
    "title": "MongoDB in Action",
    "author": "Kyle Banker",
    "pages": "480"
  },
  {
    "id": 5,
    "title": "Express in Action",
    "author": "Evan Hahn",
    "pages": "256"
  },
  {
    "id": 6,
    "title": "Secrets of the JavaScript Ninja",
    "author": "John Resig",
    "pages": "464"
  }
]